ChargeOwner;GLN_Number;ChargeType;ChargeTypeCode;Note;Description;ValidFrom;ValidTo;VATClass;Price1;Price2;Price3;Price4;Price5;Price6;Price7;Price8;Price9;Price10;Price11;Price12;Price13;Price14;Price15;Price16;Price17;Price18;Price19;Price20;Price21;Price22;Price23;Price24;TransparentInvoicing;TaxIndicator;ResolutionDuration
Energinet Systemansvar A/S (SYO);5790000432752;D03;41000;Systemtarif;Systemafgiften dækker omkostninger til forsyningssikkerhed og elforsyningens kvalitet.;2020-01-01 00:00;2021-01-01 00:00;D02;0,044000;;;;;;;;;;;;;;;;;;;;;;;;0;0;P1D
Energinet Systemansvar A/S (SYO);5790000432752;D03;EA-001;Elafgift;Elafgiften;2020-01-01 00:00;2021-01-01 00:00;D02;0,892000;;;;;;;;;;;;;;;;;;;;;;;;1;1;P1D
Energinet Systemansvar A/S (SYO);5790000432752;D03;40000;Transmissions nettarif;Netafgiften, for både forbrugere og producenter, dækker omkostninger til drift og vedligehold af det overordnede elnet (132/150 og 400 kv nettet) og drift og vedligehold af udlandsforbindelserne.;2020-01-01 00:00;2021-01-01 00:00;D02;0,053000;;;;;;;;;;;;;;;;;;;;;;;;0;0;P1D
